%YAML 1.1
%TAG !u! tag:unity3d.com,2011:
--- !u!78 &1
TagManager:
  serializedVersion: 2
  tags:
  - SoundEffectSource
  - LevelBoundries
  layers:
  - Default
  - TransparentFX
  - Ignore Raycast
  - 
  - Water
  - UI
  - 
  - 
  - Damager
  - Damageable
  - Ground
  - GroundSensor
  - Limb
  - BodyScanner
  - Grabbable
  - Grabber
  - Blood
  - 
  - 
  - 
  - 
  - 
  - 
  - 
  - 
  - 
  - 
  - 
  - 
  - 
  - 
  - 
  m_SortingLayers:
  - name: Default
    uniqueID: 0
    locked: 0
  - name: Background
    uniqueID: 1201226227
    locked: 0
  - name: BackgroundObject
    uniqueID: 2644425843
    locked: 0
  - name: Level
    uniqueID: 3299119077
    locked: 0
  - name: Player
    uniqueID: 677995783
    locked: 0
  - name: ForegroundObject
    uniqueID: 72960335
    locked: 0
