%YAML 1.1
%TAG !u! tag:unity3d.com,2011:
--- !u!221 &22100000
AnimatorOverrideController:
  m_ObjectHideFlags: 0
  m_CorrespondingSourceObject: {fileID: 0}
  m_PrefabInstance: {fileID: 0}
  m_PrefabAsset: {fileID: 0}
  m_Name: BearHead
  m_Controller: {fileID: 9100000, guid: 4168dd17147092544a1c9a9c03e88869, type: 2}
  m_Clips: []
