%YAML 1.1
%TAG !u! tag:unity3d.com,2011:
--- !u!221 &22100000
AnimatorOverrideController:
  m_ObjectHideFlags: 0
  m_CorrespondingSourceObject: {fileID: 0}
  m_PrefabInstance: {fileID: 0}
  m_PrefabAsset: {fileID: 0}
  m_Name: BearLegs
  m_Controller: {fileID: 9100000, guid: 4168dd17147092544a1c9a9c03e88869, type: 2}
  m_Clips:
  - m_OriginalClip: {fileID: 7400000, guid: b49fa4a0d20cf8943bb0b173a9aba9e6, type: 2}
    m_OverrideClip: {fileID: 7400000, guid: 2205709c0879de34c86252c7adc33e53, type: 2}
  - m_OriginalClip: {fileID: 7400000, guid: 6af7d4c4d8e93cf409466e7a6018ed70, type: 2}
    m_OverrideClip: {fileID: 7400000, guid: 82077fb497f357d49a390d5e7f524603, type: 2}
  - m_OriginalClip: {fileID: 7400000, guid: 5bd1749b7a9e3b84a8fd3a68da91ced7, type: 2}
    m_OverrideClip: {fileID: 7400000, guid: 0f2142005aa71574bbcc187eb5eeb34d, type: 2}
